auk: working with eBird data in R
…
Group checklists

eBird observers birding together can share checklists resulting in group checklists. In the simplest case, all observers will have seen the same set of species; however, observers can also add or remove species from their checklist. In the EBD, group checklists result in duplicate records, one for each observer. auk_unique() (called by default by read_ebd()) de-duplicates the EBD, resulting in one record for each species on each group checklist.

Zero-filling

So far weve been working with presence-only data; however, many applications of the eBird data require presence-absence information. Although observers only explicitly record presence, they have the option of designating their checklists as complete, meaning they are reporting all the species they saw or heard. With complete checklists, any species not reported can be taken to have an implicit count of zero. Therefore, by focusing on complete checklists, we can use the sampling event data to zero-fill the EBD producing presence-absence data. This is why its important to filter both the EBD and the sampling event data at the same time; we need to ensure that the EBD observations are drawn from the population of checklists defined by the sampling event data.

Given an EBD file or data frame, and corresponding sampling event data, function auk_zerofill() produces zero-filled, presence-absence data.

zf <- auk_zerofill(f_out_ebd, f_out_sampling)
zf
#> Zero-filled EBD: 12,938 unique checklists, for 2 species.
zf$observations
#> # A tibble: 25,876 x 4
#>    checklist_id scientific_name    observation_count species_observed
#>    <chr>        <chr>              <chr>             <lgl>           
#>  1 G1003224     Catharus bicknelli 0                 FALSE           
#>  2 G1003224     Catharus ustulatus X                 TRUE            
#>  3 G1022603     Catharus bicknelli 0                 FALSE           
#>  4 G1022603     Catharus ustulatus 0                 FALSE           
#>  5 G1054429     Catharus bicknelli 3                 TRUE            
#>  6 G1054429     Catharus ustulatus X                 TRUE            
#>  7 G1054430     Catharus bicknelli 0                 FALSE           
#>  8 G1054430     Catharus ustulatus X                 TRUE            
#>  9 G1054431     Catharus bicknelli 1                 TRUE            
#> 10 G1054431     Catharus ustulatus X                 TRUE            
#> # ... with 25,866 more rows
zf$sampling_events
#> # A tibble: 12,938 x 29
#>    checklist_id last_edited_date  country   country_code state  state_code
#>    <chr>        <chr>             <chr>     <chr>        <chr>  <chr>     
#>  1 S10836735    2014-05-07 19:19 United S US           New H US-NH     
#>  2 S10936397    2014-05-07 19:03 United S US           New H US-NH     
#>  3 S10995603    2014-05-07 19:03 United S US           New H US-NH     
#>  4 S11005948    2012-06-19 12:40 United S US           New H US-NH     
#>  5 S11013341    2012-06-20 18:26 United S US           New H US-NH     
#>  6 S15136517    2013-09-10 08:16 United S US           New H US-NH     
#>  7 S11012701    2017-06-12 06:31 United S US           New H US-NH     
#>  8 S10995655    2012-06-17 19:56 United S US           New H US-NH     
#>  9 S15295339    2014-05-07 18:59 United S US           New H US-NH     
#> 10 S10932312    2014-05-07 18:45 United S US           New H US-NH     
#> # ... with 12,928 more rows, and 23 more variables: county <chr>,
#> #   county_code <chr>, iba_code <chr>, bcr_code <int>, usfws_code <chr>,
#> #   atlas_block <chr>, locality_id <chr>, locality_type <chr>,
#> #   latitude <dbl>, longitude <dbl>, observation_date <date>,
#> #   time_observations_started <chr>, observer_id <chr>,
#> #   sampling_event_identifier <chr>, protocol_type <chr>,
#> #   protocol_code <chr>, project_code <chr>, duration_minutes <int>,
#> #   effort_distance_km <dbl>, effort_area_ha <dbl>,
#> #   number_observers <int>, all_species_reported <lgl>,
#> #   group_identifier <chr>

The resulting auk_zerofill object is a list of two data frames: observations stores the species counts for each checklist and sampling_events stores the checklists. The checklist_id field can be used to combine the files together manually, or you can use the collapse_zerofill() function.

collapse_zerofill(zf)
#> # A tibble: 25,876 x 32
#>    checklist_id last_edited_date  country   country_code state  state_code
#>    <chr>        <chr>             <chr>     <chr>        <chr>  <chr>     
#>  1 S10836735    2014-05-07 19:19 United S US           New H US-NH     
#>  2 S10836735    2014-05-07 19:19 United S US           New H US-NH     
#>  3 S10936397    2014-05-07 19:03 United S US           New H US-NH     
#>  4 S10936397    2014-05-07 19:03 United S US           New H US-NH     
#>  5 S10995603    2014-05-07 19:03 United S US           New H US-NH     
#>  6 S10995603    2014-05-07 19:03 United S US           New H US-NH     
#>  7 S11005948    2012-06-19 12:40 United S US           New H US-NH     
#>  8 S11005948    2012-06-19 12:40 United S US           New H US-NH     
#>  9 S11013341    2012-06-20 18:26 United S US           New H US-NH     
#> 10 S11013341    2012-06-20 18:26 United S US           New H US-NH     
#> # ... with 25,866 more rows, and 26 more variables: county <chr>,
#> #   county_code <chr>, iba_code <chr>, bcr_code <int>, usfws_code <chr>,
#> #   atlas_block <chr>, locality_id <chr>, locality_type <chr>,
#> #   latitude <dbl>, longitude <dbl>, observation_date <date>,
#> #   time_observations_started <chr>, observer_id <chr>,
#> #   sampling_event_identifier <chr>, protocol_type <chr>,
#> #   protocol_code <chr>, project_code <chr>, duration_minutes <int>,
#> #   effort_distance_km <dbl>, effort_area_ha <dbl>,
#> #   number_observers <int>, all_species_reported <lgl>,
…
